(module ArduinoProSMD (layer F.Cu) (tedit 5FA4C53D)
  (fp_text reference REF** (at 17.145 0 90) (layer F.SilkS)
    (effects (font (size 1 1) (thickness 0.15)))
  )
  (fp_text value ArduinoProSMD (at -17.145 0.127 90) (layer F.Fab)
    (effects (font (size 1 1) (thickness 0.15)))
  )
  (fp_text user TX0 (at -13.97 12.446 90) (layer F.SilkS)
    (effects (font (size 1 1) (thickness 0.15)))
  )
  (fp_circle (center -16.129 10.414) (end -15.729 10.414) (layer F.SilkS) (width 0.8))
  (fp_line (start -15.34 8.87) (end 15.34 8.87) (layer F.SilkS) (width 0.12))
  (fp_line (start -15.34 8.87) (end -15.34 -8.87) (layer F.SilkS) (width 0.12))
  (fp_line (start -15.34 -8.87) (end 15.34 -8.87) (layer F.SilkS) (width 0.12))
  (fp_line (start 15.34 8.87) (end 15.34 -8.87) (layer F.SilkS) (width 0.2))
  (fp_line (start -15.34 -6.37) (end 15.34 -6.37) (layer F.SilkS) (width 0.12))
  (fp_line (start -15.34 6.37) (end 15.34 6.37) (layer F.SilkS) (width 0.12))
  (fp_text user SCL (at -1.27 12.446 90) (layer F.SilkS)
    (effects (font (size 1 1) (thickness 0.15)))
  )
  (fp_text user SDA (at -3.81 12.446 90) (layer F.SilkS)
    (effects (font (size 1 1) (thickness 0.15)))
  )
  (fp_text user GND (at -6.35 12.446 90) (layer F.SilkS)
    (effects (font (size 1 1) (thickness 0.15)))
  )
  (fp_text user RXI (at -11.43 12.446 90) (layer F.SilkS)
    (effects (font (size 1 1) (thickness 0.15)))
  )
  (fp_text user GND (at -8.89 12.446 90) (layer F.SilkS)
    (effects (font (size 1 1) (thickness 0.15)))
  )
  (fp_text user PD4 (at 1.27 12.446 90) (layer F.SilkS)
    (effects (font (size 1 1) (thickness 0.15)))
  )
  (fp_text user PB4 (at 11.43 12.446 90) (layer F.SilkS)
    (effects (font (size 1 1) (thickness 0.15)))
  )
  (fp_text user PE6 (at 8.89 12.446 90) (layer F.SilkS)
    (effects (font (size 1 1) (thickness 0.15)))
  )
  (fp_text user PB5 (at 13.97 12.446 90) (layer F.SilkS)
    (effects (font (size 1 1) (thickness 0.15)))
  )
  (fp_text user PC6 (at 3.81 12.446 90) (layer F.SilkS)
    (effects (font (size 1 1) (thickness 0.15)))
  )
  (fp_text user PD7 (at 6.35 12.446 90) (layer F.SilkS)
    (effects (font (size 1 1) (thickness 0.15)))
  )
  (fp_text user PB2 (at 11.43 -12.446 90) (layer F.SilkS)
    (effects (font (size 1 1) (thickness 0.15)))
  )
  (fp_text user PB3 (at 8.89 -12.446 90) (layer F.SilkS)
    (effects (font (size 1 1) (thickness 0.15)))
  )
  (fp_text user PF7 (at 3.81 -12.446 90) (layer F.SilkS)
    (effects (font (size 1 1) (thickness 0.15)))
  )
  (fp_text user PB6 (at 13.97 -12.446 90) (layer F.SilkS)
    (effects (font (size 1 1) (thickness 0.15)))
  )
  (fp_text user PB1 (at 6.35 -12.446 90) (layer F.SilkS)
    (effects (font (size 1 1) (thickness 0.15)))
  )
  (fp_text user RAW (at -13.97 -12.446 90) (layer F.SilkS)
    (effects (font (size 1 1) (thickness 0.15)))
  )
  (fp_text user PF4 (at -3.81 -12.446 90) (layer F.SilkS)
    (effects (font (size 1 1) (thickness 0.15)))
  )
  (fp_text user VCC (at -6.35 -12.446 90) (layer F.SilkS)
    (effects (font (size 1 1) (thickness 0.15)))
  )
  (fp_text user PF6 (at 1.27 -12.446 90) (layer F.SilkS)
    (effects (font (size 1 1) (thickness 0.15)))
  )
  (fp_text user PF5 (at -1.27 -12.446 90) (layer F.SilkS)
    (effects (font (size 1 1) (thickness 0.15)))
  )
  (fp_text user GND (at -11.43 -12.446 90) (layer F.SilkS)
    (effects (font (size 1 1) (thickness 0.15)))
  )
  (fp_text user RST (at -8.89 -12.446 90) (layer F.SilkS)
    (effects (font (size 1 1) (thickness 0.15)))
  )
  (pad 16 smd rect (at 6.35 -5.47) (size 1 2) (layers F.Cu F.Paste F.Mask))
  (pad 17 smd rect (at 3.81 -9.77) (size 1 2) (layers F.Cu F.Paste F.Mask))
  (pad 20 smd rect (at -3.81 -5.47) (size 1 2) (layers F.Cu F.Paste F.Mask))
  (pad 13 smd rect (at 13.97 -9.77) (size 1 2) (layers F.Cu F.Paste F.Mask))
  (pad 14 smd rect (at 11.43 -5.47) (size 1 2) (layers F.Cu F.Paste F.Mask))
  (pad 15 smd rect (at 8.89 -9.77) (size 1 2) (layers F.Cu F.Paste F.Mask))
  (pad 18 smd rect (at 1.27 -5.47) (size 1 2) (layers F.Cu F.Paste F.Mask))
  (pad 23 smd rect (at -11.43 -9.77) (size 1 2) (layers F.Cu F.Paste F.Mask))
  (pad 19 smd rect (at -1.27 -9.77) (size 1 2) (layers F.Cu F.Paste F.Mask))
  (pad 21 smd rect (at -6.35 -9.77) (size 1 2) (layers F.Cu F.Paste F.Mask))
  (pad 22 smd rect (at -8.89 -5.47) (size 1 2) (layers F.Cu F.Paste F.Mask))
  (pad 24 smd rect (at -13.97 -5.47) (size 1 2) (layers F.Cu F.Paste F.Mask))
  (pad 12 smd rect (at 13.97 5.47) (size 1 2) (layers F.Cu F.Paste F.Mask))
  (pad 11 smd rect (at 11.43 9.77) (size 1 2) (layers F.Cu F.Paste F.Mask))
  (pad 10 smd rect (at 8.89 5.47) (size 1 2) (layers F.Cu F.Paste F.Mask))
  (pad 9 smd rect (at 6.35 9.77) (size 1 2) (layers F.Cu F.Paste F.Mask))
  (pad 8 smd rect (at 3.81 5.47) (size 1 2) (layers F.Cu F.Paste F.Mask))
  (pad 7 smd rect (at 1.27 9.77) (size 1 2) (layers F.Cu F.Paste F.Mask))
  (pad 6 smd rect (at -1.27 5.47) (size 1 2) (layers F.Cu F.Paste F.Mask))
  (pad 5 smd rect (at -3.81 9.77) (size 1 2) (layers F.Cu F.Paste F.Mask))
  (pad 4 smd rect (at -6.35 5.47) (size 1 2) (layers F.Cu F.Paste F.Mask))
  (pad 3 smd rect (at -8.89 9.77) (size 1 2) (layers F.Cu F.Paste F.Mask))
  (pad 2 smd rect (at -11.43 5.47) (size 1 2) (layers F.Cu F.Paste F.Mask))
  (pad 1 smd rect (at -13.97 9.77) (size 1 2) (layers F.Cu F.Paste F.Mask))
)
