(module Mx_Alps_200-dualsided (layer F.Cu) (tedit 5FD40F87)
  (descr MXALPS)
  (tags MXALPS)
  (fp_text reference K45 (at -0.254 2.794) (layer F.SilkS) hide
    (effects (font (size 1 1) (thickness 0.2)))
  )
  (fp_text value KEYSW (at 0 4.572) (layer F.SilkS)
    (effects (font (size 1.524 1.524) (thickness 0.3048)))
  )
  (fp_line (start -7.62 7.620001) (end -7.620001 -7.62) (layer Dwgs.User) (width 0.3))
  (fp_line (start 7.620001 7.62) (end -7.62 7.620001) (layer Dwgs.User) (width 0.3))
  (fp_line (start 7.62 -7.620001) (end 7.620001 7.62) (layer Dwgs.User) (width 0.3))
  (fp_line (start -7.620001 -7.62) (end 7.62 -7.620001) (layer Dwgs.User) (width 0.3))
  (fp_line (start 7.75 -6.4) (end -7.75 -6.4) (layer Dwgs.User) (width 0.3))
  (fp_line (start 7.75 6.4) (end 7.75 -6.4) (layer Dwgs.User) (width 0.3))
  (fp_line (start -7.75 6.4) (end 7.75 6.4) (layer Dwgs.User) (width 0.3))
  (fp_line (start -7.75 6.4) (end -7.75 -6.4) (layer Dwgs.User) (width 0.3))
  (fp_line (start -6.985 6.984999) (end -6.984999 -6.985) (layer Eco2.User) (width 0.1524))
  (fp_line (start 6.984999 6.985) (end -6.985 6.984999) (layer Eco2.User) (width 0.1524))
  (fp_line (start 6.985 -6.984999) (end 6.984999 6.985) (layer Eco2.User) (width 0.1524))
  (fp_line (start -6.984999 -6.985) (end 6.985 -6.984999) (layer Eco2.User) (width 0.1524))
  (fp_line (start -6.35 -4.572) (end -6.35 -6.35) (layer F.SilkS) (width 0.381))
  (fp_line (start -6.35 6.35) (end -6.35 4.572) (layer F.SilkS) (width 0.381))
  (fp_line (start -4.572 6.35) (end -6.35 6.35) (layer F.SilkS) (width 0.381))
  (fp_line (start 6.35 6.35) (end 4.572 6.35) (layer F.SilkS) (width 0.381))
  (fp_line (start 6.35 4.572) (end 6.35 6.35) (layer F.SilkS) (width 0.381))
  (fp_line (start 6.35 -6.35) (end 6.35 -4.572) (layer F.SilkS) (width 0.381))
  (fp_line (start 4.572 -6.35) (end 6.35 -6.35) (layer F.SilkS) (width 0.381))
  (fp_line (start -6.35 -6.35) (end -4.572 -6.35) (layer F.SilkS) (width 0.381))
  (fp_line (start -18.796 9.398) (end -18.796 -9.398) (layer Dwgs.User) (width 0.1524))
  (fp_line (start 18.796 9.398) (end -18.796 9.398) (layer Dwgs.User) (width 0.1524))
  (fp_line (start 18.796 -9.398) (end 18.796 9.398) (layer Dwgs.User) (width 0.1524))
  (fp_line (start -18.796 -9.398) (end 18.796 -9.398) (layer Dwgs.User) (width 0.1524))
  (fp_line (start -6.35 6.35) (end -6.35 -6.35) (layer Cmts.User) (width 0.1524))
  (fp_line (start 6.35 6.35) (end -6.35 6.35) (layer Cmts.User) (width 0.1524))
  (fp_line (start 6.35 -6.35) (end 6.35 6.35) (layer Cmts.User) (width 0.1524))
  (fp_line (start -6.35 -6.35) (end 6.35 -6.35) (layer Cmts.User) (width 0.1524))
  (fp_line (start 6.35 -6.35) (end 4.572 -6.35) (layer B.SilkS) (width 0.381))
  (fp_line (start -4.572 -6.35) (end -6.35 -6.35) (layer B.SilkS) (width 0.381))
  (fp_line (start -6.35 -6.35) (end -6.35 -4.572) (layer B.SilkS) (width 0.381))
  (fp_line (start -6.35 4.572) (end -6.35 6.35) (layer B.SilkS) (width 0.381))
  (fp_line (start -6.35 6.35) (end -4.572 6.35) (layer B.SilkS) (width 0.381))
  (fp_line (start 4.572 6.35) (end 6.35 6.35) (layer B.SilkS) (width 0.381))
  (fp_line (start 6.35 6.35) (end 6.35 4.572) (layer B.SilkS) (width 0.381))
  (fp_line (start 6.35 -4.572) (end 6.35 -6.35) (layer B.SilkS) (width 0.381))
  (pad 2 thru_hole oval (at 2.52 -4.79 356.1) (size 2.5 3.08) (drill oval 1.5 2.08) (layers *.Cu *.Mask F.SilkS))
  (pad 1 thru_hole oval (at -3.405 -3.27 330.95) (size 2.5 4.17) (drill oval 1.5 3.17) (layers *.Cu *.Mask F.SilkS))
  (pad HOLE np_thru_hole circle (at 5.08 0) (size 1.7018 1.7018) (drill 1.7018) (layers *.Cu))
  (pad HOLE np_thru_hole circle (at -5.08 0) (size 1.7018 1.7018) (drill 1.7018) (layers *.Cu))
  (pad HOLE np_thru_hole circle (at 0 0) (size 3.9878 3.9878) (drill 3.9878) (layers *.Cu))
  (pad 2 thru_hole oval (at 3.405 -3.27 29.05) (size 2.5 4.17) (drill oval 1.5 3.17) (layers *.Cu *.Mask F.SilkS))
  (pad 1 thru_hole oval (at -2.52 -4.79 3.9) (size 2.5 3.08) (drill oval 1.5 2.08) (layers *.Cu *.Mask F.SilkS))
  (pad "" np_thru_hole circle (at -11.938 -6.985) (size 3.048 3.048) (drill 3.048) (layers *.Cu *.Mask))
  (pad "" np_thru_hole circle (at 11.938 -6.985) (size 3.048 3.048) (drill 3.048) (layers *.Cu *.Mask))
  (pad "" np_thru_hole circle (at -11.938 8.255) (size 3.9878 3.9878) (drill 3.9878) (layers *.Cu *.Mask))
  (pad "" np_thru_hole circle (at 11.938 8.255) (size 3.9878 3.9878) (drill 3.9878) (layers *.Cu *.Mask))
)
