(module PJ382LW (layer F.Cu) (tedit 6012C2CB)
  (fp_text reference REF** (at 0 15.113) (layer F.SilkS)
    (effects (font (size 1 1) (thickness 0.15)))
  )
  (fp_text value PJ382LW (at -0.127 16.891) (layer F.Fab)
    (effects (font (size 1 1) (thickness 0.15)))
  )
  (fp_text user REF** (at 0 15.113 180) (layer B.SilkS)
    (effects (font (size 1 1) (thickness 0.15)) (justify mirror))
  )
  (fp_text user "PCB border" (at 8.2296 -0.889) (layer Dwgs.User)
    (effects (font (size 1 1) (thickness 0.15)))
  )
  (fp_line (start 3 13.35) (end -3 13.35) (layer B.SilkS) (width 0.12))
  (fp_line (start -2.25 -1) (end -2.25 0) (layer B.SilkS) (width 0.12))
  (fp_line (start 3 0) (end 3 13.35) (layer B.SilkS) (width 0.12))
  (fp_line (start -3 0) (end -3 13.35) (layer B.SilkS) (width 0.12))
  (fp_line (start 2.25 -1) (end 2.25 0) (layer B.SilkS) (width 0.12))
  (fp_line (start 2.25 -1) (end -2.25 -1) (layer B.SilkS) (width 0.12))
  (fp_line (start 3 0) (end -3 0) (layer B.SilkS) (width 0.12))
  (fp_line (start -5 0) (end 5 0) (layer Dwgs.User) (width 0.12))
  (fp_line (start 2.25 -1) (end 2.25 0) (layer F.SilkS) (width 0.12))
  (fp_line (start -2.25 -1) (end 2.25 -1) (layer F.SilkS) (width 0.12))
  (fp_line (start -2.25 -1) (end -2.25 0) (layer F.SilkS) (width 0.12))
  (fp_line (start -3 0) (end 3 0) (layer F.SilkS) (width 0.12))
  (fp_line (start 3 0) (end 3 13.35) (layer F.SilkS) (width 0.12))
  (fp_line (start -3 13.35) (end 3 13.35) (layer F.SilkS) (width 0.12))
  (fp_line (start -3 0) (end -3 13.35) (layer F.SilkS) (width 0.12))
  (pad 3 smd rect (at 3.55 5.83 180) (size 2.5 1.5) (layers B.Cu B.Paste B.Mask))
  (pad 3 smd rect (at -3.55 3.8 180) (size 2.5 1.5) (layers B.Cu B.Paste B.Mask))
  (pad 4 smd rect (at 3.55 2.8 180) (size 2.5 1.5) (layers B.Cu B.Paste B.Mask))
  (pad 1 smd rect (at -3.55 8.87 180) (size 2.5 1.5) (layers B.Cu B.Paste B.Mask))
  (pad 2 smd rect (at -3.55 6.7 180) (size 2.5 1.5) (layers B.Cu B.Paste B.Mask))
  (pad 1 smd rect (at 3.55 10.8 180) (size 2.5 1.5) (layers B.Cu B.Paste B.Mask))
  (pad 2 smd rect (at 3.55 8.72 180) (size 2.5 1.5) (layers B.Cu B.Paste B.Mask))
  (pad "" np_thru_hole circle (at 0 9.3) (size 1.5 1.5) (drill 1.5) (layers *.Cu *.Mask))
  (pad "" np_thru_hole circle (at 0 2.3) (size 1.5 1.5) (drill 1.5) (layers *.Cu *.Mask))
  (pad 1 smd rect (at 3.55 8.87) (size 2.5 1.5) (layers F.Cu F.Paste F.Mask))
  (pad 2 smd rect (at 3.55 6.7) (size 2.5 1.5) (layers F.Cu F.Paste F.Mask))
  (pad 3 smd rect (at 3.55 3.8) (size 2.5 1.5) (layers F.Cu F.Paste F.Mask))
  (pad 1 smd rect (at -3.55 10.8) (size 2.5 1.5) (layers F.Cu F.Paste F.Mask))
  (pad 2 smd rect (at -3.55 8.72) (size 2.5 1.5) (layers F.Cu F.Paste F.Mask))
  (pad 3 smd rect (at -3.55 5.83) (size 2.5 1.5) (layers F.Cu F.Paste F.Mask))
  (pad 4 smd rect (at -3.55 2.8) (size 2.5 1.5) (layers F.Cu F.Paste F.Mask))
)
