(module SW_Cherry_MX_1.00u_PCB (layer F.Cu) (tedit 5FF5F4F5)
  (descr "Cherry MX keyswitch, 1.00u, PCB mount, http://cherryamericas.com/wp-content/uploads/2014/12/mx_cat.pdf")
  (tags "Cherry MX keyswitch 1.00u PCB")
  (fp_text reference REF** (at 0 -7.874) (layer F.SilkS)
    (effects (font (size 1 1) (thickness 0.15)))
  )
  (fp_text value SW_Cherry_MX_1.00u_PCB (at 0 7.874) (layer F.Fab)
    (effects (font (size 1 1) (thickness 0.15)))
  )
  (fp_line (start 6.985 -6.985) (end -6.985 -6.985) (layer B.SilkS) (width 0.12))
  (fp_line (start -6.985 6.985) (end 6.985 6.985) (layer B.SilkS) (width 0.12))
  (fp_line (start 6.985 6.985) (end 6.985 -6.985) (layer B.SilkS) (width 0.12))
  (fp_line (start -6.985 -6.985) (end -6.985 6.985) (layer B.SilkS) (width 0.12))
  (fp_line (start -6.35 -6.35) (end 6.35 -6.35) (layer F.Fab) (width 0.1))
  (fp_line (start 6.35 -6.35) (end 6.35 6.35) (layer F.Fab) (width 0.1))
  (fp_line (start 6.35 6.35) (end -6.35 6.35) (layer F.Fab) (width 0.1))
  (fp_line (start -6.35 6.35) (end -6.35 -6.35) (layer F.Fab) (width 0.1))
  (fp_line (start -6.6 6.6) (end -6.6 -6.6) (layer F.CrtYd) (width 0.05))
  (fp_line (start 6.6 6.6) (end -6.6 6.6) (layer F.CrtYd) (width 0.05))
  (fp_line (start 6.6 -6.6) (end 6.6 6.6) (layer F.CrtYd) (width 0.05))
  (fp_line (start -6.6 -6.6) (end 6.6 -6.6) (layer F.CrtYd) (width 0.05))
  (fp_line (start -9.525 -9.525) (end 9.525 -9.525) (layer Dwgs.User) (width 0.15))
  (fp_line (start 9.525 -9.525) (end 9.525 9.525) (layer Dwgs.User) (width 0.15))
  (fp_line (start 9.525 9.525) (end -9.525 9.525) (layer Dwgs.User) (width 0.15))
  (fp_line (start -9.525 9.525) (end -9.525 -9.525) (layer Dwgs.User) (width 0.15))
  (fp_line (start -6.985 -6.985) (end 6.985 -6.985) (layer F.SilkS) (width 0.12))
  (fp_line (start 6.985 -6.985) (end 6.985 6.985) (layer F.SilkS) (width 0.12))
  (fp_line (start 6.985 6.985) (end -6.985 6.985) (layer F.SilkS) (width 0.12))
  (fp_line (start -6.985 6.985) (end -6.985 -6.985) (layer F.SilkS) (width 0.12))
  (fp_line (start -1.85 6.03) (end 1.85 6.03) (layer F.CrtYd) (width 0.05))
  (fp_line (start 1.85 6.03) (end 1.85 4.13) (layer F.CrtYd) (width 0.05))
  (fp_line (start -1.85 4.13) (end -1.85 6.03) (layer F.CrtYd) (width 0.05))
  (fp_line (start 1.85 4.13) (end -1.85 4.13) (layer F.CrtYd) (width 0.05))
  (fp_line (start 0.227064 5.815) (end -0.227064 5.815) (layer B.SilkS) (width 0.12))
  (fp_line (start 0.227064 4.345) (end -0.227064 4.345) (layer B.SilkS) (width 0.12))
  (fp_line (start -1 5.705) (end -1 4.455) (layer B.Fab) (width 0.1))
  (fp_line (start 1 4.455) (end -1 4.455) (layer F.Fab) (width 0.1))
  (fp_line (start 1 4.455) (end 1 5.705) (layer B.Fab) (width 0.1))
  (fp_line (start 1 5.705) (end 1 4.455) (layer F.Fab) (width 0.1))
  (fp_line (start 1 5.705) (end -1 5.705) (layer B.Fab) (width 0.1))
  (fp_line (start 0.227064 5.815) (end -0.227064 5.815) (layer F.SilkS) (width 0.12))
  (fp_line (start -1 5.705) (end 1 5.705) (layer F.Fab) (width 0.1))
  (fp_line (start 0.227064 4.345) (end -0.227064 4.345) (layer F.SilkS) (width 0.12))
  (fp_line (start -1 4.455) (end -1 5.705) (layer F.Fab) (width 0.1))
  (fp_line (start -1 4.455) (end 1 4.455) (layer B.Fab) (width 0.1))
  (fp_text user + (at -2.54 5.08) (layer F.SilkS)
    (effects (font (size 1 1) (thickness 0.15)))
  )
  (pad 2 thru_hole circle (at 2.54 -5.08) (size 2.2 2.2) (drill 1.5) (layers *.Cu *.Mask))
  (pad 1 thru_hole circle (at -3.81 -2.54) (size 2.2 2.2) (drill 1.5) (layers *.Cu *.Mask))
  (pad "" np_thru_hole circle (at 0 0) (size 4 4) (drill 4) (layers *.Cu *.Mask))
  (pad "" np_thru_hole circle (at -5.08 0) (size 1.7 1.7) (drill 1.7) (layers *.Cu *.Mask))
  (pad "" np_thru_hole circle (at 5.08 0) (size 1.7 1.7) (drill 1.7) (layers *.Cu *.Mask))
  (pad 2 thru_hole circle (at 3.81 -2.54 180) (size 2.2 2.2) (drill 1.5) (layers *.Cu *.Mask))
  (pad 1 thru_hole circle (at -2.54 -5.08 180) (size 2.2 2.2) (drill 1.5) (layers *.Cu *.Mask))
  (pad 4 thru_hole circle (at 2.794 5.08) (size 1 1) (drill 0.4) (layers *.Cu *.Mask))
  (pad 4 smd rect (at 1.778 5.08) (size 2 0.2) (layers B.Cu B.Paste B.Mask))
  (pad 4 smd rect (at 1.778 5.08) (size 2 0.2) (layers F.Cu F.Paste F.Mask))
  (pad 4 smd roundrect (at 1 5.08) (size 1.2 1.4) (layers B.Cu B.Paste B.Mask) (roundrect_rratio 0.208))
  (pad 5 smd roundrect (at -1 5.08) (size 1.2 1.4) (layers B.Cu B.Paste B.Mask) (roundrect_rratio 0.208))
  (pad 3 smd roundrect (at -1 5.08) (size 1.2 1.4) (layers F.Cu F.Paste F.Mask) (roundrect_rratio 0.208))
  (pad 4 smd roundrect (at 1 5.08) (size 1.2 1.4) (layers F.Cu F.Paste F.Mask) (roundrect_rratio 0.208))
  (model ${KISYS3DMOD}/Button_Switch_Keyboard.3dshapes/SW_Cherry_MX_1.00u_PCB.wrl
    (at (xyz 0 0 0))
    (scale (xyz 1 1 1))
    (rotate (xyz 0 0 0))
  )
)
